Project 1: Wrangling, Exploration, Visualization
…
Tidying: Reshaping

If your datasets are tidy already, demonstrate that you can reshape data with pivot wider/longer here (e.g., untidy and then retidy). Alternatively, it may be easier to wait until the wrangling section so you can reshape your summary statistics. Note here if you are going to do this.

# your tidying code (if applicable; can also wait until
# wrangling section)
library(tidyr)
heart1 <- heart %>% pivot_wider(names_from = id, values_from = surgery)

heart1 %>% pivot_longer(cols = (7:109), names_to = "id", values_to = "surgery", 
    values_drop_na = "TRUE")

## # A tibble: 172 x 8
##    start  stop event    age  year transplant id    surgery
##    <dbl> <dbl> <dbl>  <dbl> <dbl> <fct>      <chr>   <dbl>
##  1     0    50     1 -17.2  0.123 0          1           0
##  2     0     6     1   3.84 0.255 0          2           0
##  3     0     1     0   6.30 0.266 0          3           0
##  4     1    16     1   6.30 0.266 1          3           0
##  5     0    36     0  -7.74 0.490 0          4           0
##  6    36    39     1  -7.74 0.490 1          4           0
##  7     0    18     1 -27.2  0.608 0          5           0
##  8     0     3     1   6.60 0.701 0          6           0
##  9     0    51     0   2.87 0.780 0          7           0
## 10    51   675     1   2.87 0.780 1          7           0
## #  with 162 more rows

stanford1 <- stanford %>% pivot_wider(names_from = id, values_from = status)
stanford1 %>% pivot_longer(cols = (4:187), names_to = "id", values_to = "status", 
    values_drop_na = "TRUE")

## # A tibble: 184 x 5
##     time   age    t5 id    status
##    <dbl> <dbl> <dbl> <chr>  <dbl>
##  1    86    12  1.26 139        1
##  2    10    13  1.49 159        1
##  3    60    13 NA    181        0
##  4  1116    14  0.54 119        0
##  5  2006    15  1.26 74         0
##  6  1107    18  0.25 120        0
##  7  1232    18  0.7  99         1
##  8    42    19  0.63 108        1
##  9    98    19 NA    179        0
## 10   227    19  1.02 43         1
## #  with 174 more rows
…
full %>% group_by(status) %>% mutate(meant5 = mean(t5))

## # A tibble: 184 x 9
## # Groups:   status [2]
##    event surgery transplant    id  time status   age    t5 meant5
##    <chr> <chr>   <chr>      <dbl> <dbl> <chr>  <dbl> <dbl>  <dbl>
##  1 no    noprior Y              1    15 alive     54  1.11     NA
##  2 no    noprior Y              2     3 alive     40  1.66     NA
##  3 yes   noprior Y              3    46 alive     42  0.61     NA
##  4 yes   noprior Y              4   623 alive     51  1.32     NA
##  5 no    noprior Y              5   126 alive     48  0.36     NA
##  6 no    noprior Y              6    64 alive     54  1.89     NA
##  7 yes   noprior Y              7  1350 alive     54  0.87     NA
##  8 no    noprior Y              8    23 alive     56  2.05     NA
##  9 no    noprior Y              9   279 alive     49  1.12     NA
## 10 yes   noprior Y             10  1024 alive     43  1.13     NA
## #  with 174 more rows
…
